{
  "photos": {
    "page": 1,
    "pages": 11,
    "perpage": 100,
    "total": 1006,
    "photo": [
      {
        "id": "51370403230",
        "owner": "112417610@N03",
        "secret": "997579f13d",
        "server": "65535",
        "farm": 66,
        "title": "GREGORY--WK70-KXO",
        "ispublic": 1,
        "isfriend": 0,
        "isfamily": 0
      },
      {
        "id": "51356035885",
        "owner": "73653739@N03",
        "secret": "bd74949a0b",
        "server": "65535",
        "farm": 66,
        "title": "FX12 KXO",
        "ispublic": 1,
        "isfriend": 0,
        "isfamily": 0
      },
      {
        "id": "51328485833",
        "owner": "95129006@N02",
        "secret": "7a9d2189e2",
        "server": "65535",
        "farm": 66,
        "title": "Capt Nicholas Tettersall BF12 KXO",
        "ispublic": 1,
        "isfriend": 0,
        "isfamily": 0
      },
      {
        "id": "51319198472",
        "owner": "60944732@N08",
        "secret": "16a497161f",
        "server": "65535",
        "farm": 66,
        "title": "AW19 KXO | Turners (Soham)",
        "ispublic": 1,
        "isfriend": 0,
        "isfamily": 0
      },
      {
        "id": "51286300929",
        "owner": "93733773@N03",
        "secret": "0b7fb52b8a",
        "server": "65535",
        "farm": 66,
        "title": "Brighton & Hove BF12 KXO Route 29 & BF12 KXA Route 22 - Brighton 26\/06\/2021",
        "ispublic": 1,
        "isfriend": 0,
        "isfamily": 0
      },
      {
        "id": "51285582921",
        "owner": "93733773@N03",
        "secret": "34b6c35bf8",
        "server": "65535",
        "farm": 66,
        "title": "Brighton & Hove BF12 KXO Route 29 & BF12 KXA Route 22 - Brighton 26\/06\/2021",
        "ispublic": 1,
        "isfriend": 0,
        "isfamily": 0
      },
      {
        "id": "51270896949",
        "owner": "60944732@N08",
        "secret": "bb4a541267",
        "server": "65535",
        "farm": 66,
        "title": "AW19 KXO | Turners (Soham)",
        "ispublic": 1,
        "isfriend": 0,
        "isfamily": 0
      },
      {
        "id": "51270694355",
        "owner": "48377404@N04",
        "secret": "e45f9a8670",
        "server": "65535",
        "farm": 66,
        "title": "Arriva Midlands 4215 - FJ58 KXO",
        "ispublic": 1,
        "isfriend": 0,
        "isfamily": 0
      },
      {
        "id": "51262371906",
        "owner": "124685594@N04",
        "secret": "70b5413616",
        "server": "65535",
        "farm": 66,
        "title": "Brighton & Hove 436 (BF12 KXO)",
        "ispublic": 1,
        "isfriend": 0,
        "isfamily": 0
      },
      {
        "id": "51258253777",
        "owner": "48632724@N04",
        "secret": "a5143b0035",
        "server": "65535",
        "farm": 66,
        "title": "NJ13 KXO",
        "ispublic": 1,
        "isfriend": 0,
        "isfamily": 0
      },
      {
        "id": "51244273546",
        "owner": "141169709@N06",
        "secret": "0eaa50123d",
        "server": "65535",
        "farm": 66,
        "title": "G-MANC (VT-FFA) 1992 BAe ATP Coventry 13.10.17",
        "ispublic": 1,
        "isfriend": 0,
        "isfamily": 0
      },
      {
        "id": "51182488163",
        "owner": "60503103@N02",
        "secret": "4f67543be5",
        "server": "65535",
        "farm": 66,
        "title": "DSC_4300",
        "ispublic": 1,
        "isfriend": 0,
        "isfamily": 0
      },
      {
        "id": "51182488128",
        "owner": "60503103@N02",
        "secret": "8b967c2610",
        "server": "65535",
        "farm": 66,
        "title": "DSC_4301",
        "ispublic": 1,
        "isfriend": 0,
        "isfamily": 0
      },
      {
        "id": "51152801351",
        "owner": "98620506@N05",
        "secret": "836c9a881a",
        "server": "65535",
        "farm": 66,
        "title": "FJ58 KXO \u2018ARRIVA Midlands\u2019 No 4215. Volvo B9TL \/ Wright Eclipse Gemini on Dennis Basford\u2019s railsroadsrunways.blogspot.co.uk\u2019",
        "ispublic": 1,
        "isfriend": 0,
        "isfamily": 0
      },
      {
        "id": "51117270231",
        "owner": "188877170@N06",
        "secret": "c1344a6573",
        "server": "65535",
        "farm": 66,
        "title": "FJ58 KXO 4215 1A",
        "ispublic": 1,
        "isfriend": 0,
        "isfamily": 0
      },
      {
        "id": "51055776222",
        "owner": "126371323@N02",
        "secret": "3af5fb9b57",
        "server": "65535",
        "farm": 66,
        "title": "LN51 KXO - Metroline (LN) DLD207  0402",
        "ispublic": 1,
        "isfriend": 0,
        "isfamily": 0
      },
      {
        "id": "51050065996",
        "owner": "53507315@N06",
        "secret": "c9d82e1213",
        "server": "65535",
        "farm": 66,
        "title": "DX65 KXO - DJ Leddington",
        "ispublic": 1,
        "isfriend": 0,
        "isfamily": 0
      },
      {
        "id": "51049724021",
        "owner": "162308192@N07",
        "secret": "dc0c59c920",
        "server": "65535",
        "farm": 66,
        "title": "IMG_8524c",
        "ispublic": 1,
        "isfriend": 0,
        "isfamily": 0
      },
      {
        "id": "51039076556",
        "owner": "170899963@N02",
        "secret": "a801bddcca",
        "server": "65535",
        "farm": 66,
        "title": "Arriva North East VDL SB200\/Wright Pulsar 1325 MX12 KXO",
        "ispublic": 1,
        "isfriend": 0,
        "isfamily": 0
      },
      {
        "id": "51036857853",
        "owner": "156964044@N03",
        "secret": "257c8266f7",
        "server": "65535",
        "farm": 66,
        "title": "EC-KXO AgustaWestland AW109E 061. Helicoptero de la empresa Babcock.",
        "ispublic": 1,
        "isfriend": 0,
        "isfamily": 0
      },
      {
        "id": "51037578836",
        "owner": "156964044@N03",
        "secret": "45bb17cebf",
        "server": "65535",
        "farm": 66,
        "title": "EC-KXO AgustaWestland AW109E 061. Helicoptero de la empresa Babcock.",
        "ispublic": 1,
        "isfriend": 0,
        "isfamily": 0
      },
      {
        "id": "51037676657",
        "owner": "156964044@N03",
        "secret": "6e2c8edcf5",
        "server": "65535",
        "farm": 66,
        "title": "EC-KXO AgustaWestland AW109E 061. Helicoptero de la empresa Babcock.",
        "ispublic": 1,
        "isfriend": 0,
        "isfamily": 0
      },
      {
        "id": "51037673797",
        "owner": "156964044@N03",
        "secret": "2d1c52841e",
        "server": "65535",
        "farm": 66,
        "title": "EC-KXO AgustaWestland AW109E 061. Helicoptero de la empresa Babcock.",
        "ispublic": 1,
        "isfriend": 0,
        "isfamily": 0
      },
      {
        "id": "51037670222",
        "owner": "156964044@N03",
        "secret": "79f109553e",
        "server": "65535",
        "farm": 66,
        "title": "EC-KXO AgustaWestland AW109E 061. Helicoptero de la empresa Babcock.",
        "ispublic": 1,
        "isfriend": 0,
        "isfamily": 0
      },
      {
        "id": "51037667412",
        "owner": "156964044@N03",
        "secret": "aeb7bef069",
        "server": "65535",
        "farm": 66,
        "title": "EC-KXO AgustaWestland AW109E 061. Helicoptero de la empresa Babcock.",
        "ispublic": 1,
        "isfriend": 0,
        "isfamily": 0
      },
      {
        "id": "51036838603",
        "owner": "156964044@N03",
        "secret": "8805a5993c",
        "server": "65535",
        "farm": 66,
        "title": "EC-KXO AgustaWestland AW109E 061. Helicoptero de la empresa Babcock.",
        "ispublic": 1,
        "isfriend": 0,
        "isfamily": 0
      },
      {
        "id": "51037628232",
        "owner": "156964044@N03",
        "secret": "ec9c2df51c",
        "server": "65535",
        "farm": 66,
        "title": "EC-KXO AgustaWestland AW109E 061. Helicoptero de la empresa Babcock.",
        "ispublic": 1,
        "isfriend": 0,
        "isfamily": 0
      },
      {
        "id": "51036795663",
        "owner": "156964044@N03",
        "secret": "cd47b329d9",
        "server": "65535",
        "farm": 66,
        "title": "EC-KXO AgustaWestland AW109 061. Helic\u00f3pteros de la empresa Babcock.",
        "ispublic": 1,
        "isfriend": 0,
        "isfamily": 0
      },
      {
        "id": "51037619732",
        "owner": "156964044@N03",
        "secret": "22978f8557",
        "server": "65535",
        "farm": 66,
        "title": "EC-KXO AgustaWestland AW109 061. Helic\u00f3pteros de la empresa Babcock.",
        "ispublic": 1,
        "isfriend": 0,
        "isfamily": 0
      },
      {
        "id": "51037617277",
        "owner": "156964044@N03",
        "secret": "b7a72826e9",
        "server": "65535",
        "farm": 66,
        "title": "EC-KXO AgustaWestland AW109E 061. Helicoptero de la empresa Babcock.",
        "ispublic": 1,
        "isfriend": 0,
        "isfamily": 0
      },
      {
        "id": "51032130997",
        "owner": "156964044@N03",
        "secret": "62f89dce36",
        "server": "65535",
        "farm": 66,
        "title": "EC-KXO AgustaWestland AW109E 061. Helic\u00f3pteros de la empresa Babcock.",
        "ispublic": 1,
        "isfriend": 0,
        "isfamily": 0
      },
      {
        "id": "51032030566",
        "owner": "156964044@N03",
        "secret": "8b2cd64425",
        "server": "65535",
        "farm": 66,
        "title": "EC-KXO AgustaWestland AW109E 061. Helic\u00f3pteros de la empresa Babcock.",
        "ispublic": 1,
        "isfriend": 0,
        "isfamily": 0
      },
      {
        "id": "51032030381",
        "owner": "156964044@N03",
        "secret": "e4c5c0df8a",
        "server": "65535",
        "farm": 66,
        "title": "EC-KXO AgustaWestland AW109E 061. Helic\u00f3pteros de la empresa Babcock.",
        "ispublic": 1,
        "isfriend": 0,
        "isfamily": 0
      },
      {
        "id": "51032130507",
        "owner": "156964044@N03",
        "secret": "257f264845",
        "server": "65535",
        "farm": 66,
        "title": "EC-KXO AgustaWestland AW109E 061. Helic\u00f3pteros de la empresa Babcock.",
        "ispublic": 1,
        "isfriend": 0,
        "isfamily": 0
      },
      {
        "id": "51031299863",
        "owner": "156964044@N03",
        "secret": "b549c9e025",
        "server": "65535",
        "farm": 66,
        "title": "EC-KXO AgustaWestland AW109E 061. Helic\u00f3pteros de la empresa Babcock.",
        "ispublic": 1,
        "isfriend": 0,
        "isfamily": 0
      },
      {
        "id": "51032130292",
        "owner": "156964044@N03",
        "secret": "2919cac439",
        "server": "65535",
        "farm": 66,
        "title": "EC-KXO AgustaWestland AW109E 061. Helic\u00f3pteros de la empresa Babcock.",
        "ispublic": 1,
        "isfriend": 0,
        "isfamily": 0
      },
      {
        "id": "50994240302",
        "owner": "69615237@N07",
        "secret": "9f44cde3a6",
        "server": "65535",
        "farm": 66,
        "title": "AGUSTA A109E POWER (MSN 11749) BABCOCK ESPA\u00d1A (EC-KXO) \/ HELIPUERTO DE LA CARTUJA (LEEX) SEVILLA",
        "ispublic": 1,
        "isfriend": 0,
        "isfamily": 0
      },
      {
        "id": "50994120081",
        "owner": "69615237@N07",
        "secret": "72d99d1e9d",
        "server": "65535",
        "farm": 66,
        "title": "AGUSTA A109E POWER (MSN 11749) BABCOCK ESPA\u00d1A (EC-KXO) \/ HELIPUERTO DE LA CARTUJA (LEEX) SEVILLA",
        "ispublic": 1,
        "isfriend": 0,
        "isfamily": 0
      },
      {
        "id": "50981359653",
        "owner": "189385765@N02",
        "secret": "ab30eef802",
        "server": "65535",
        "farm": 66,
        "title": "EC-KXO - Agusta A109E Power",
        "ispublic": 1,
        "isfriend": 0,
        "isfamily": 0
      },
      {
        "id": "50981350188",
        "owner": "189385765@N02",
        "secret": "809f50d5b5",
        "server": "65535",
        "farm": 66,
        "title": "EC-KXO - Agusta A109E Power",
        "ispublic": 1,
        "isfriend": 0,
        "isfamily": 0
      },
      {
        "id": "50973668388",
        "owner": "69615237@N07",
        "secret": "04400f6cf2",
        "server": "65535",
        "farm": 66,
        "title": "AGUSTA A109E POWER (MSN 11749) INAER (EC-KXO) HELIPUERTO DE LA CARTUJA (LEXX)",
        "ispublic": 1,
        "isfriend": 0,
        "isfamily": 0
      },
      {
        "id": "50974363836",
        "owner": "69615237@N07",
        "secret": "8d7be71698",
        "server": "65535",
        "farm": 66,
        "title": "AGUSTA A109E POWER (MSN 11749) INAER (EC-KXO) HELIPUERTO DE LA CARTUJA (LEXX)",
        "ispublic": 1,
        "isfriend": 0,
        "isfamily": 0
      },
      {
        "id": "50973668098",
        "owner": "69615237@N07",
        "secret": "caefe930a3",
        "server": "65535",
        "farm": 66,
        "title": "AGUSTA A109E POWER (MSN 11749) INAER (EC-KXO) HELIPUERTO DE LA CARTUJA (LEXX)",
        "ispublic": 1,
        "isfriend": 0,
        "isfamily": 0
      },
      {
        "id": "50974466532",
        "owner": "69615237@N07",
        "secret": "d5d90e714e",
        "server": "65535",
        "farm": 66,
        "title": "AGUSTA A109E POWER (MSN 11749) INAER (EC-KXO) HELIPUERTO DE LA CARTUJA (LEXX)",
        "ispublic": 1,
        "isfriend": 0,
        "isfamily": 0
      },
      {
        "id": "50974363326",
        "owner": "69615237@N07",
        "secret": "a11748b8b4",
        "server": "65535",
        "farm": 66,
        "title": "AGUSTA A109E POWER (MSN 11749) INAER (EC-KXO) HELIPUERTO DE LA CARTUJA (LEXX)",
        "ispublic": 1,
        "isfriend": 0,
        "isfamily": 0
      },
      {
        "id": "50974363246",
        "owner": "69615237@N07",
        "secret": "b14416b5e5",
        "server": "65535",
        "farm": 66,
        "title": "AGUSTA A109E POWER (MSN 11749) INAER (EC-KXO) HELIPUERTO DE LA CARTUJA (LEXX)",
        "ispublic": 1,
        "isfriend": 0,
        "isfamily": 0
      },
      {
        "id": "50974466242",
        "owner": "69615237@N07",
        "secret": "eeb8e566a4",
        "server": "65535",
        "farm": 66,
        "title": "AGUSTA A109E POWER (MSN 11749) INAER (EC-KXO) HELIPUERTO DE LA CARTUJA (LEXX)",
        "ispublic": 1,
        "isfriend": 0,
        "isfamily": 0
      },
      {
        "id": "50884344138",
        "owner": "128485084@N08",
        "secret": "3f5e7e3267",
        "server": "65535",
        "farm": 66,
        "title": "EC-KXO ECMA 2-4-2010",
        "ispublic": 1,
        "isfriend": 0,
        "isfamily": 0
      },
      {
        "id": "50866989298",
        "owner": "187843901@N03",
        "secret": "47ccbdc3fb",
        "server": "65535",
        "farm": 66,
        "title": "SYLVAGEN PX19 KXO",
        "ispublic": 1,
        "isfriend": 0,
        "isfamily": 0
      },
      {
        "id": "50866829458",
        "owner": "128485084@N08",
        "secret": "87a3bc5c9d",
        "server": "65535",
        "farm": 66,
        "title": "ZS-KXO ZSVA 25-9-2006",
        "ispublic": 1,
        "isfriend": 0,
        "isfamily": 0
      },
      {
        "id": "50800784666",
        "owner": "131786702@N03",
        "secret": "e40f92f44a",
        "server": "65535",
        "farm": 66,
        "title": "BARRATTS FL68 KXO",
        "ispublic": 1,
        "isfriend": 0,
        "isfamily": 0
      },
      {
        "id": "50780642117",
        "owner": "190400900@N08",
        "secret": "4cf66df97d",
        "server": "65535",
        "farm": 66,
        "title": "Brighton & Hove BF12 KXO 436 Capt Nicholas Tattersell Regency Branded (2)",
        "ispublic": 1,
        "isfriend": 0,
        "isfamily": 0
      },
      {
        "id": "50780642017",
        "owner": "190400900@N08",
        "secret": "35de085dc0",
        "server": "65535",
        "farm": 66,
        "title": "Brighton & Hove BF12 KXO 436 Capt Nicholas Tattersell Regency Branded",
        "ispublic": 1,
        "isfriend": 0,
        "isfamily": 0
      },
      {
        "id": "50753487368",
        "owner": "187368869@N08",
        "secret": "ba1dd2e3cd",
        "server": "65535",
        "farm": 66,
        "title": "YX18 KXO Go-ahead",
        "ispublic": 1,
        "isfriend": 0,
        "isfamily": 0
      },
      {
        "id": "50751538472",
        "owner": "123594177@N08",
        "secret": "e0dd2e0c70",
        "server": "65535",
        "farm": 66,
        "title": "22nd December 2020. Diamond 40724 MX20 KXO and 40740 MX20 JZU on Bolton Road, Farnworth, Bolton, Lancashire",
        "ispublic": 1,
        "isfriend": 0,
        "isfamily": 0
      },
      {
        "id": "50675041793",
        "owner": "128088386@N03",
        "secret": "c31135381a",
        "server": "65535",
        "farm": 66,
        "title": "ABBCO FN19 KXO M1 J10 23.11 (2)",
        "ispublic": 1,
        "isfriend": 0,
        "isfamily": 0
      },
      {
        "id": "50613365732",
        "owner": "187117926@N04",
        "secret": "aff23c67e0",
        "server": "65535",
        "farm": 66,
        "title": "Mercedes-Benz",
        "ispublic": 1,
        "isfriend": 0,
        "isfamily": 0
      },
      {
        "id": "50597116691",
        "owner": "75439546@N03",
        "secret": "1676c6532b",
        "server": "65535",
        "farm": 66,
        "title": "436 BF12 KXO",
        "ispublic": 1,
        "isfriend": 0,
        "isfamily": 0
      },
      {
        "id": "50596364948",
        "owner": "75439546@N03",
        "secret": "196e96b64a",
        "server": "65535",
        "farm": 66,
        "title": "436 BF12 KXO",
        "ispublic": 1,
        "isfriend": 0,
        "isfamily": 0
      },
      {
        "id": "50570009553",
        "owner": "60503103@N02",
        "secret": "6692ffdc4e",
        "server": "65535",
        "farm": 66,
        "title": "DSC_8460",
        "ispublic": 1,
        "isfriend": 0,
        "isfamily": 0
      },
      {
        "id": "50570009468",
        "owner": "60503103@N02",
        "secret": "304c38f36a",
        "server": "65535",
        "farm": 66,
        "title": "DSC_8464",
        "ispublic": 1,
        "isfriend": 0,
        "isfamily": 0
      },
      {
        "id": "50561386258",
        "owner": "57431507@N06",
        "secret": "dfd9739d46",
        "server": "65535",
        "farm": 66,
        "title": "436=BF12 KXO Capt Nicholas Tettersell (The Regency Route)",
        "ispublic": 1,
        "isfriend": 0,
        "isfamily": 0
      },
      {
        "id": "50452836917",
        "owner": "75439546@N03",
        "secret": "1aa2e0b55a",
        "server": "65535",
        "farm": 66,
        "title": "436 BF12 KXO",
        "ispublic": 1,
        "isfriend": 0,
        "isfamily": 0
      },
      {
        "id": "50371106528",
        "owner": "115199517@N06",
        "secret": "8074b3a546",
        "server": "65535",
        "farm": 66,
        "title": "Abbco FN19 KXO",
        "ispublic": 1,
        "isfriend": 0,
        "isfamily": 0
      },
      {
        "id": "50348363213",
        "owner": "115199517@N06",
        "secret": "bc7041009a",
        "server": "65535",
        "farm": 66,
        "title": "Abbco FN19 KXO",
        "ispublic": 1,
        "isfriend": 0,
        "isfamily": 0
      },
      {
        "id": "50300050398",
        "owner": "57495319@N06",
        "secret": "2c0f67cb5d",
        "server": "65535",
        "farm": 66,
        "title": "YX18 KXO",
        "ispublic": 1,
        "isfriend": 0,
        "isfamily": 0
      },
      {
        "id": "50224965972",
        "owner": "165607241@N05",
        "secret": "d09fd0d3c4",
        "server": "65535",
        "farm": 66,
        "title": "40724 MX20 KXO",
        "ispublic": 1,
        "isfriend": 0,
        "isfamily": 0
      },
      {
        "id": "50222958196",
        "owner": "165607241@N05",
        "secret": "5694aaf834",
        "server": "65535",
        "farm": 66,
        "title": "40724 MX20 KXO",
        "ispublic": 1,
        "isfriend": 0,
        "isfamily": 0
      },
      {
        "id": "50214002638",
        "owner": "128088386@N03",
        "secret": "94bac26b0a",
        "server": "65535",
        "farm": 66,
        "title": "HOLYWELL GC14 KXO A505 WINGFIELD 10.8 (2)",
        "ispublic": 1,
        "isfriend": 0,
        "isfamily": 0
      },
      {
        "id": "50200634657",
        "owner": "185786721@N04",
        "secret": "064c27e1b8",
        "server": "65535",
        "farm": 66,
        "title": "TETLEYS (T999 TET) PN08 KXO",
        "ispublic": 1,
        "isfriend": 0,
        "isfamily": 0
      },
      {
        "id": "50192288086",
        "owner": "152138909@N08",
        "secret": "142e364b19",
        "server": "65535",
        "farm": 66,
        "title": "Diamond North West 40724 (MX20 KXO)",
        "ispublic": 1,
        "isfriend": 0,
        "isfamily": 0
      },
      {
        "id": "50148085526",
        "owner": "115199517@N06",
        "secret": "c5ee7af064",
        "server": "65535",
        "farm": 66,
        "title": "Abbco FN19 KXO",
        "ispublic": 1,
        "isfriend": 0,
        "isfamily": 0
      },
      {
        "id": "50137142246",
        "owner": "75439546@N03",
        "secret": "fa798a5bdc",
        "server": "65535",
        "farm": 66,
        "title": "436 BF12 KXO",
        "ispublic": 1,
        "isfriend": 0,
        "isfamily": 0
      },
      {
        "id": "50129009571",
        "owner": "75439546@N03",
        "secret": "99c39409e6",
        "server": "65535",
        "farm": 66,
        "title": "436 BF12 KXO",
        "ispublic": 1,
        "isfriend": 0,
        "isfamily": 0
      },
      {
        "id": "50129229117",
        "owner": "75439546@N03",
        "secret": "da2364d3e4",
        "server": "65535",
        "farm": 66,
        "title": "436 BF12 KXO",
        "ispublic": 1,
        "isfriend": 0,
        "isfamily": 0
      },
      {
        "id": "50115532323",
        "owner": "64141575@N07",
        "secret": "05fe43dc3c",
        "server": "65535",
        "farm": 66,
        "title": "Sylvagen. Scania R 450. PX19 KXO.",
        "ispublic": 1,
        "isfriend": 0,
        "isfamily": 0
      },
      {
        "id": "50086506508",
        "owner": "43911105@N00",
        "secret": "8c37904ff1",
        "server": "65535",
        "farm": 66,
        "title": "Brighton & Hove 436 Wright Gemini bodied Volvo B9TL BF12 KXO",
        "ispublic": 1,
        "isfriend": 0,
        "isfamily": 0
      },
      {
        "id": "50019732952",
        "owner": "129254256@N04",
        "secret": "2cbefa9cc2",
        "server": "65535",
        "farm": 66,
        "title": "Yeomans Canyon Travel Optare Solo MX54 KXO 80 , City Bus Station Hereford 29.2.20",
        "ispublic": 1,
        "isfriend": 0,
        "isfamily": 0
      },
      {
        "id": "50287324316",
        "owner": "161586798@N08",
        "secret": "0be557c663",
        "server": "65535",
        "farm": 66,
        "title": "FN19 KXO - Abbco Transport",
        "ispublic": 1,
        "isfriend": 0,
        "isfamily": 0
      },
      {
        "id": "49945997688",
        "owner": "131364593@N06",
        "secret": "5fa66d0aa4",
        "server": "65535",
        "farm": 66,
        "title": "MX54 KXO (3) | Yeomans",
        "ispublic": 1,
        "isfriend": 0,
        "isfamily": 0
      },
      {
        "id": "49946669257",
        "owner": "131364593@N06",
        "secret": "3fa002e9c9",
        "server": "65535",
        "farm": 66,
        "title": "MX54 KXO (1) | Yeomans",
        "ispublic": 1,
        "isfriend": 0,
        "isfamily": 0
      },
      {
        "id": "49946668072",
        "owner": "131364593@N06",
        "secret": "a02c0719db",
        "server": "65535",
        "farm": 66,
        "title": "MX54 KXO (2) | Yeomans",
        "ispublic": 1,
        "isfriend": 0,
        "isfamily": 0
      },
      {
        "id": "49927983601",
        "owner": "157374402@N04",
        "secret": "87d368656f",
        "server": "65535",
        "farm": 66,
        "title": "Arriva 723",
        "ispublic": 1,
        "isfriend": 0,
        "isfamily": 0
      },
      {
        "id": "49858322428",
        "owner": "75439546@N03",
        "secret": "21e2bf9136",
        "server": "65535",
        "farm": 66,
        "title": "426 BF12 KXA, 432 BF12 KXE & 436 BF12 KXO",
        "ispublic": 1,
        "isfriend": 0,
        "isfamily": 0
      },
      {
        "id": "49832852511",
        "owner": "57431507@N06",
        "secret": "e05399640b",
        "server": "65535",
        "farm": 66,
        "title": "DLD207=LN51 KXO Metroline",
        "ispublic": 1,
        "isfriend": 0,
        "isfamily": 0
      },
      {
        "id": "49793613558",
        "owner": "112417610@N03",
        "secret": "d886acc914",
        "server": "65535",
        "farm": 66,
        "title": "SUTTONS--YJ17-KXO",
        "ispublic": 1,
        "isfriend": 0,
        "isfamily": 0
      },
      {
        "id": "49761800826",
        "owner": "128088386@N03",
        "secret": "c61184f1ac",
        "server": "65535",
        "farm": 66,
        "title": "HOLYWELL GC14 KXO M1 J10 19.3.20",
        "ispublic": 1,
        "isfriend": 0,
        "isfamily": 0
      },
      {
        "id": "49685364633",
        "owner": "50634293@N05",
        "secret": "d86c935021",
        "server": "65535",
        "farm": 66,
        "title": "Hicks DAF XF105 KX63 KXO",
        "ispublic": 1,
        "isfriend": 0,
        "isfamily": 0
      },
      {
        "id": "49658866876",
        "owner": "98620506@N05",
        "secret": "41a2c3c824",
        "server": "65535",
        "farm": 66,
        "title": "FJ58 KXO \u2018ARRIVA Midlands\u2019 No. 4215. Volvo B9TL \/ Wright Eclipse Gemini on Dennis Basford\u2019s railsroadsrunways.blogspot.co.uk\u2019",
        "ispublic": 1,
        "isfriend": 0,
        "isfamily": 0
      },
      {
        "id": "49651533311",
        "owner": "115199517@N06",
        "secret": "472163448d",
        "server": "65535",
        "farm": 66,
        "title": "Abbco FN19 KXO",
        "ispublic": 1,
        "isfriend": 0,
        "isfamily": 0
      },
      {
        "id": "49515865831",
        "owner": "161586798@N08",
        "secret": "620ae11452",
        "server": "65535",
        "farm": 66,
        "title": "GC14 KXO - Holywell Skips",
        "ispublic": 1,
        "isfriend": 0,
        "isfamily": 0
      },
      {
        "id": "49484506642",
        "owner": "161586798@N08",
        "secret": "3e86716e60",
        "server": "65535",
        "farm": 66,
        "title": "RK19 KXO - Booker",
        "ispublic": 1,
        "isfriend": 0,
        "isfamily": 0
      },
      {
        "id": "49488107941",
        "owner": "128088386@N03",
        "secret": "c4920517a1",
        "server": "65535",
        "farm": 66,
        "title": "HOLYWELL GC14 KXO M1 J10 3.2.20",
        "ispublic": 1,
        "isfriend": 0,
        "isfamily": 0
      },
      {
        "id": "49443927363",
        "owner": "90615105@N08",
        "secret": "ccb7760ed3",
        "server": "65535",
        "farm": 66,
        "title": "436",
        "ispublic": 1,
        "isfriend": 0,
        "isfamily": 0
      },
      {
        "id": "49399811781",
        "owner": "138705729@N04",
        "secret": "1879ac6d3d",
        "server": "65535",
        "farm": 66,
        "title": "Wright Eclipse Gemini 2 (BF12 KXO)",
        "ispublic": 1,
        "isfriend": 0,
        "isfamily": 0
      },
      {
        "id": "49416408033",
        "owner": "161586798@N08",
        "secret": "97d98395e2",
        "server": "65535",
        "farm": 66,
        "title": "MV69 KXO - Lineage",
        "ispublic": 1,
        "isfriend": 0,
        "isfamily": 0
      },
      {
        "id": "49375225761",
        "owner": "10553078@N00",
        "secret": "ddee133d46",
        "server": "65535",
        "farm": 66,
        "title": "840 - BJ16 KXO",
        "ispublic": 1,
        "isfriend": 0,
        "isfamily": 0
      },
      {
        "id": "49361535231",
        "owner": "115199517@N06",
        "secret": "87354d9882",
        "server": "65535",
        "farm": 66,
        "title": "Hicks Transport KX63 KXO",
        "ispublic": 1,
        "isfriend": 0,
        "isfamily": 0
      },
      {
        "id": "49355968103",
        "owner": "115199517@N06",
        "secret": "5955df6076",
        "server": "65535",
        "farm": 66,
        "title": "Hicks Transport KX63 KXO",
        "ispublic": 1,
        "isfriend": 0,
        "isfamily": 0
      },
      {
        "id": "49339278282",
        "owner": "115199517@N06",
        "secret": "db55e4f4b3",
        "server": "65535",
        "farm": 66,
        "title": "Abbco FN19 KXO",
        "ispublic": 1,
        "isfriend": 0,
        "isfamily": 0
      }
    ]
  },
  "stat": "ok"
}